<?xml version="1.0" encoding="utf-8"?>
<!-- Generator: Adobe Illustrator 16.0.0, SVG Export Plug-In . SVG Version: 6.00 Build 0)  -->
<!DOCTYPE svg PUBLIC "-//W3C//DTD SVG 1.1//EN" "http://www.w3.org/Graphics/SVG/1.1/DTD/svg11.dtd">
<svg version="1.1" id="Layer_1" xmlns="http://www.w3.org/2000/svg" xmlns:xlink="http://www.w3.org/1999/xlink" x="0px" y="0px"
	 width="90.494px" height="32.75px" viewBox="1527 550.5 90.494 32.75" enable-background="new 1527 550.5 90.494 32.75"
	 xml:space="preserve">
<g id="Layer_x0020_1">
	<g id="_373762336">
		<path id="_373763848" fill="#EA3639" d="M1586.895,566.403c-0.037-0.018-1.188-0.381-1.479-0.871c0,0,1.016-1.206,1.561,0.871
			C1586.985,566.421,1586.931,566.421,1586.895,566.403L1586.895,566.403L1586.895,566.403z M1586.765,563.678
			c-0.975-0.2-1.869,1.304-1.869,1.304s-0.142-0.099-0.171-0.087c-0.031,0.012-0.708,0.859-0.812,0.999
			c-1.04,1.408-2.082,1.241-2.089,1.247c-1.931,0.024-2.561-1.695-2.608-1.762c-0.433-0.938-0.498-0.871-0.612-0.938
			c-0.15-0.09-0.726-0.03-1.555,0.678c-0.842,0.718-1.506,2.636-1.518,2.661c-1.021,3.341-1.498,3.259-1.874,3.248
			c-0.375-0.013-0.682-0.447-0.998-1.047c-0.314-0.599-0.48-2.143-0.474-2.772c0.006-0.63,0.061-0.87,0-0.864
			c-0.06,0.006-0.196,0.24-0.229,0.409c-0.173,0.88-0.026,2.042-0.026,2.133c0.061,1.107,0.777,3.175,1.764,3.182
			c0.987,0.006,1.395-1.461,1.484-1.698c0.201-0.538,0.486-1.825,1.089-3.115c0.586-1.254,1.755-1.265,1.864-1.229
			c0.108,0.036,1.205,2.567,3.088,2.676c1.882,0.109,2.519-1.429,2.675-1.713c0.158-0.285,0.315-0.357,0.358-0.4
			c0.042-0.042,0.157,0.067,0.157,0.061c0.314,0.575,2.53,1.81,2.983,1.387c0.454-0.424,0.751-1.291,0.764-1.496
			S1587.739,563.877,1586.765,563.678L1586.765,563.678L1586.765,563.678z"/>
		<path id="_373767928" fill="#EA3639" d="M1567.096,560.122l-0.03-0.097l0.557-0.006l0.246-0.009c0,0-0.049-0.174-0.246-0.299
			c-0.11-0.058-1.623-0.981-1.992-1.102c-0.012,0.006-0.291,1.695-0.291,1.695s0.375,0.024,0.466,0.158
			c0.091,0.133,0.809,1.154,1.108,1.447c0.292,0.287,1.471,1.489,3.898,2.47c0.911,0.254,1.187,0.813,1.187,0.813
			s-1.006,0.814-1.853,1.384c-0.268,0.18-4.187,2.689-5.854,3.426c-0.055,0.024-1.625,0.742-2.018,0.078
			c-0.337-0.569-0.402-1.155,0.264-2.887c0,0.006,0.194-0.484,0.194-0.484l0.129-0.517c0,0-0.403,0.442-0.936,2.035
			c-0.29,0.727-0.676,2.64,0.033,3.293c0.708,0.654,1.42,0.42,2.712-0.162c1.499-0.676,6.669-3.814,7.429-4.828
			c0.329-0.438,0.377-0.985,0.401-1.204c0.015-0.131,0.142-1.325-0.401-1.849c-0.352-0.34-0.579-0.502-1.306-0.854
			c-0.726-0.351-2.657-1.32-3.414-2.222C1567.374,560.401,1567.096,560.122,1567.096,560.122L1567.096,560.122L1567.096,560.122z"/>
		<polygon id="_373768360" fill="#EA3639" points="1564.983,564.598 1565.728,563.126 1567.259,564.21 1566.508,565.735 		"/>
		<polygon id="_373768600" fill="#EA3639" points="1550.667,573.166 1551.411,571.694 1552.943,572.779 1552.192,574.304 		"/>
		<polygon id="_373768816" fill="#EA3639" points="1553.115,572.847 1553.86,571.376 1555.391,572.459 1554.641,573.984 		"/>
		<polygon id="_373769056" fill="#EA3639" points="1572.593,562.309 1573.338,560.838 1574.87,561.921 1574.119,563.447 		"/>
		<polygon id="_373769296" fill="#EA3639" points="1575.042,561.99 1575.786,560.519 1577.317,561.603 1576.566,563.128 		"/>
		<path id="_373769344" fill="#EA3639" d="M1561.552,556.708l-0.032-0.13l0.813,0.032c0,0,0.02-0.134-0.128-0.304
			c-0.108-0.125-1.677-1.562-1.677-1.562l-0.502,1.689c0,0,0.351,0.2,0.382,0.291c0.03,0.091,0.357,1.053,0.526,1.338
			s1.12,1.974,1.301,2.234c0,0.012,0.192,0.256,0.2,0.684c0,0.012-0.037,0.091-0.061,0.109c-0.024,0.018-1.072,0.684-2.276,0.805
			l-0.739,0.018l-0.694,1.344c0,0,0.797,0.291,0.864,0.351c0.066,0.061,1.077,0.474,1.719,0.666
			c0.584,0.174,1.471,0.369,1.616,0.491c0.337,0.155,0.369,0.46,0.369,0.46s-2.276,1.778-7.361,2.899
			c-0.46,0.073-7.216,1.478-13.221-0.75c-0.097-0.048-2.938-0.985-4.964-2.664c-0.193-0.193-1.792-1.623-1.792-1.623l-0.832-0.896
			l0.388,0.872c0,0,2.429,3.584,2.551,3.705c0.121,0.122,2.276,1.986,7.579,3.196c2.324,0.533,6.925,0.315,9.032-0.048
			c2.107-0.363,7.216-1.752,8.814-3.608c0.097-0.121,0.896-1.622,0.847-2.034c0.057-0.516-0.387-0.944-0.678-1.017
			s-1.695-0.46-1.84-0.509c0.048,0.049,1.406-0.774,1.38-2.276c0.048-1.187-0.242-1.501-0.315-1.671
			c-0.072-0.17-1.187-1.905-1.187-1.905L1561.552,556.708L1561.552,556.708L1561.552,556.708z"/>
		<path id="_373769560" fill="#EA3639" d="M1552.563,560.037l-0.838,1.39v0.042c0,0,2.078,0.021,2.338,0.111
			c0.214,0.074-0.006,0.217-0.006,0.217s-1.727,0.732-2.247,0.924c-0.096,0.032-0.138,0.137-0.138,0.137s1.946-0.135,2.419-0.35
			c0.599-0.454,1.336-1.633,1.389-1.772c0.053-0.138,0.053-0.201,0.011-0.233c-0.043-0.032-0.297-0.488-1.507-0.51
			C1552.775,559.974,1552.563,560.037,1552.563,560.037L1552.563,560.037L1552.563,560.037z"/>
		<path id="_373769752" fill="#EA3639" d="M1564.313,551.24c0,0-7.349,2.435-11.361,3.772s-9.864,3.729-9.864,3.729l-0.843,1.454
			c0,0,10.024-3.702,10.49-3.876c0.465-0.175,10.921-3.802,10.921-3.802L1564.313,551.24L1564.313,551.24L1564.313,551.24z"/>
		<path id="_373769944" fill="#EA3639" d="M1569.922,552.709c0,0-0.65-0.568-0.746-0.63c-0.154-0.1-0.154-0.263-0.154-0.263
			c0.63-0.431,0.889-0.158,0.973,0.032C1570.151,552.196,1569.922,552.709,1569.922,552.709L1569.922,552.709z M1570.227,552.891
			c0.693-1.564,0.148-1.906,0.01-1.999c-0.082-0.054-0.168-0.077-0.258-0.078c-0.269-0.001-0.568,0.206-0.845,0.425
			c-0.416,0.327-0.64,0.682-0.577,1.186c0.058,0.463,0.845,0.963,0.97,1.04c0.011,0.007,0.017,0.011,0.017,0.011l0.021,0.012
			c-0.336,0.456-1.686,1.735-3.05,2.638c-0.867,0.574-3.208,2.181-3.208,2.181s0.53-0.196,0.604-0.249
			c0.326-0.152,1.834-1.001,3.104-1.737c1.271-0.735,2.761-2.666,2.761-2.666s0.074,0.052,0.084,0.042
			c0.262,0.115,0.546,0.682,0.546,0.682s0,0.063,0.084-0.053c0.084-0.115,0.158-0.766,0.158-0.934
			S1570.227,552.891,1570.227,552.891L1570.227,552.891L1570.227,552.891z"/>
		<path id="_373770136" fill="#EA3639" d="M1578.898,553.126c0,0-0.65-0.569-0.746-0.63c-0.154-0.1-0.154-0.263-0.154-0.263
			c0.63-0.43,0.889-0.157,0.974,0.032C1579.127,552.613,1578.898,553.126,1578.898,553.126L1578.898,553.126z M1579.202,553.308
			c0.693-1.564,0.149-1.906,0.011-1.998c-0.325-0.216-0.733,0.056-1.103,0.347c-0.417,0.328-0.641,0.683-0.577,1.187
			c0.058,0.463,0.844,0.963,0.97,1.04c0.011,0.007,0.017,0.01,0.017,0.01l0.021,0.013c-0.337,0.456-1.686,1.734-3.051,2.637
			c-0.867,0.574-3.207,2.181-3.207,2.181s0.529-0.196,0.603-0.249c0.326-0.152,1.834-1.001,3.104-1.737
			c1.271-0.735,2.761-2.666,2.761-2.666s0.073,0.052,0.084,0.042c0.263,0.116,0.546,0.682,0.546,0.682s0,0.063,0.084-0.052
			s0.157-0.767,0.157-0.935C1579.622,553.641,1579.202,553.308,1579.202,553.308L1579.202,553.308L1579.202,553.308z"/>
		<path id="_373770328" fill="#EA3639" d="M1605.171,556.889c0,0-0.52-0.455-0.596-0.504c-0.124-0.081-0.124-0.21-0.124-0.21
			c0.504-0.344,0.711-0.126,0.778,0.025C1605.354,556.479,1605.171,556.889,1605.171,556.889z M1605.415,557.034
			c0.555-1.251,0.119-1.525,0.008-1.598c-0.26-0.173-0.587,0.044-0.882,0.277c-0.333,0.262-0.513,0.546-0.462,0.949
			c0.046,0.371,0.676,0.77,0.776,0.832c0.008,0.005,0.013,0.008,0.013,0.008l0.018,0.01c-0.27,0.365-1.349,1.388-2.44,2.11
			c-0.694,0.459-2.566,1.744-2.566,1.744s0.424-0.157,0.482-0.199c0.261-0.122,1.468-0.801,2.483-1.389
			c1.017-0.588,2.208-2.133,2.208-2.133s0.059,0.042,0.068,0.034c0.209,0.092,0.437,0.546,0.437,0.546s0,0.05,0.067-0.042
			c0.066-0.093,0.125-0.613,0.125-0.748S1605.415,557.034,1605.415,557.034L1605.415,557.034z"/>
		<path id="_373770520" fill="#EA3639" d="M1583.213,554.547v0.195c0,0-0.276-0.22-0.646-0.335
			c-0.008,0.004-0.089-0.038-0.089-0.055s0.072-0.676,0.123-0.732c0.052-0.055,0.187-0.127,0.229-0.127s0.824,0.31,1.184,1.749
			c0.004,0,0.162,0.661,0.162,0.661l0.048-0.381c0,0,0.169-1.586,0.2-1.736c0.042-0.203,0.197-0.559,0.448-0.563
			s0.696,0.417,0.696,0.417l-0.221,0.58c0,0-0.354-0.319-0.495-0.328c-0.294-0.02-0.349,0.468-0.425,1.302
			c-0.077,0.834-0.128,1.021-0.184,1.148c-0.055,0.128-0.114,0.222-0.114,0.222c-0.267-1.369-0.903-2.033-0.903-2.033
			L1583.213,554.547L1583.213,554.547L1583.213,554.547z"/>
		<path id="_373770712" fill="#EA3639" d="M1596.207,558.388v0.195c0,0-0.275-0.22-0.646-0.335c-0.008,0.004-0.09-0.038-0.09-0.055
			s0.072-0.676,0.124-0.731s0.188-0.128,0.229-0.128c0.043,0,0.824,0.311,1.184,1.749c0.005,0,0.162,0.661,0.162,0.661l0.047-0.381
			c0,0,0.169-1.587,0.201-1.735c0.042-0.204,0.197-0.559,0.448-0.563c0.251-0.004,0.696,0.418,0.696,0.418l-0.221,0.58
			c0,0-0.354-0.319-0.494-0.329c-0.295-0.02-0.35,0.468-0.426,1.302c-0.077,0.834-0.128,1.021-0.184,1.149
			c-0.055,0.127-0.115,0.221-0.115,0.221c-0.266-1.369-0.902-2.033-0.902-2.033L1596.207,558.388L1596.207,558.388z"/>
		<path id="_373770904" fill="#EA3639" d="M1583.674,560.74c0,0-0.146,0.055-0.207,0.134c-0.062,0.079-0.52,0.673-0.778,1.727
			c-0.268,1.094,0.341,1.29,0.341,1.29s0.389,0.182,0.741-0.69c0-0.006,0.13-0.287,0.123-0.438c0,0-0.005-0.118-0.101-0.034
			c-0.177,0.156-0.145,0.355-0.208,0.427c-0.118,0.135-0.124,0.119-0.163,0.13s-0.609-0.007-0.429-0.879
			c0.206-0.657,0.315-0.875,0.498-1.265C1583.491,561.13,1583.674,560.74,1583.674,560.74L1583.674,560.74z"/>
		<path id="_373771096" fill="#EA3639" d="M1556.856,563.403c0,0-0.145,0.055-0.207,0.134c-0.062,0.079-0.52,0.673-0.778,1.727
			c-0.268,1.094,0.341,1.289,0.341,1.289s0.389,0.183,0.741-0.689c0-0.006,0.129-0.287,0.124-0.438c0,0-0.006-0.119-0.101-0.034
			c-0.177,0.156-0.145,0.354-0.208,0.427c-0.118,0.135-0.124,0.118-0.163,0.129c-0.04,0.011-0.609-0.007-0.429-0.878
			c0.207-0.657,0.316-0.876,0.499-1.265C1556.674,563.793,1556.856,563.403,1556.856,563.403L1556.856,563.403L1556.856,563.403z"/>
		<path id="_373771288" fill="#EA3639" d="M1588.872,556.36c0,0-3.716,1.298-5.373,1.881c-1.657,0.582-4.763,1.925-4.763,1.925
			l-0.298,0.806c0,0,9.104-3.567,9.837-3.702C1588.261,557.256,1588.872,556.36,1588.872,556.36L1588.872,556.36z"/>
		<path id="_373771480" fill="#EA3639" d="M1603.785,566.175c-1.203,0.439-3.02,0.821-3.02,0.821s-0.671-2.152-0.637-2.313
			c0.035-0.162,0.336-0.636,0.775-0.787s1.379-0.207,2.349,0.278c0.932,0.465,2.421,1.111,2.556,1.145
			c0.143,0.036,0.22,0.058,0.22,0.058S1604.01,566.094,1603.785,566.175L1603.785,566.175L1603.785,566.175z M1590.62,566.813
			c-0.015-0.012-0.055-0.103-0.021-0.139c0.033-0.036,0.242-0.509,0.799-0.384c0.01,0,0.686,0.249,0.917,0.742
			C1592.315,567.031,1591.032,567.152,1590.62,566.813z M1609.229,564.64c-0.596-0.073-2.491-0.495-4.543-1.558
			s-3.124-0.778-3.151-0.77c-1.997,0.504-2.033,2.73-2.016,3.023c0.019,0.293,0.376,1.622,0.376,1.622s-0.17-0.048-0.194-0.048
			c-1.478-0.605-2.422-2.228-2.566-2.445c-1.235-2.083-3.826-4.77-4.068-5.037c-0.242-0.266-2.471-2.349-2.471-2.349l1.332-0.702
			c4.093-1.744,8.08-2.874,10.098-3.148c1.422-0.193,1.235,0.775,1.162,0.872c-0.072,0.096-0.742,1.259-0.839,1.404
			c-0.097,0.145-0.962,1.887-1.146,2.421c-0.29,0.839-0.178,1.049-0.178,1.049s0.274-0.541,0.274-0.565
			c0.404-0.953,1.179-2.325,1.841-3.463c0.417-0.718,0.936-1.38,0.992-2.518c0.059-1.167-3.075-0.484-3.123-0.46
			c-6.28,1.485-10.728,3.826-10.728,3.826l-0.484,0.896l-0.339,1.09c0,0,1.356,1.646,1.38,1.646c1.905,2.293,4.34,6.178,4.359,6.248
			c0.048,0.177,0.161,0.355,0.064,0.468c-0.205,0.24-1.565,0.662-1.565,0.662l-0.121-0.209c-2.059-3.729-3.682-0.605-3.729-0.412
			c-0.622,1.235,0.024,1.778,0.024,1.802c0.831,1.121,3.005,0.377,3.077,0.474c0.073,0.097,0.195,0.463,0.195,0.487
			c-2.859,3.113-5.865,3.855-6.388,3.896c-3.005,0.215-2.832-2.303-2.735-3.179c0.089-0.794,0.693-2.639,0.693-2.639l-0.279,0.268
			c0,0-0.037,0.077-0.133,0.246c-0.67,1.262-0.84,3.002-0.84,3.244c-0.049,4.391,3.487,4.319,6.275,2.396
			c2.869-1.979,3.279-2.681,3.637-3.223c0.284-0.431,0.431-1.771,0.431-1.771l1.1-0.485c0,0,0.678-0.522,0.807-1.64
			c0.128-1.118-0.202-1.722-0.202-1.722l0.018-0.165c0,0,0.771,1.31,2.062,2.949c1.292,1.64,2.721,1.502,2.721,1.502l0.101,1.053
			l0.119-0.036c0,0,0.046-0.009,0.155-0.266c0.11-0.257,0.132-0.843,0.132-0.843s0.362-0.09,0.372-0.081
			c1.372-0.226,4.968-2.072,6.376-2.325c0.63-0.113,1.485,0.016,1.485,0.016l0.699-1.467
			C1609.727,564.685,1609.631,564.689,1609.229,564.64L1609.229,564.64L1609.229,564.64z M1609.752,564.667l-0.005,0.009
			C1609.758,564.672,1609.752,564.667,1609.752,564.667z"/>
		<path id="_373771672" fill="#EA3639" d="M1531.493,577.994c-0.244-0.141-0.543-0.211-0.896-0.211c-0.235,0-0.469,0.051-0.701,0.15
			c-0.233,0.1-0.44,0.249-0.622,0.449c-0.182,0.199-0.328,0.447-0.441,0.747c-0.112,0.299-0.167,0.65-0.167,1.055
			c0,0.307,0.041,0.592,0.126,0.853c0.084,0.261,0.205,0.486,0.363,0.679c0.159,0.191,0.353,0.341,0.582,0.448
			c0.229,0.107,0.493,0.16,0.788,0.16c0.067,0,0.142-0.003,0.227-0.011c0.084-0.007,0.166-0.017,0.245-0.026
			c0.08-0.011,0.152-0.025,0.219-0.043c0.066-0.018,0.115-0.037,0.145-0.058c0.009-0.062,0.014-0.138,0.017-0.23
			c0.002-0.092,0.003-0.194,0.003-0.308c0-0.414-0.007-0.721-0.021-0.918c-0.014-0.197-0.023-0.332-0.028-0.403
			c0.052,0.01,0.12,0.019,0.204,0.027c0.084,0.007,0.206,0.011,0.364,0.011c0.184,0,0.321-0.004,0.411-0.011
			c0.09-0.009,0.16-0.018,0.211-0.027c-0.01,0.041-0.019,0.107-0.027,0.199s-0.014,0.198-0.019,0.318
			c-0.005,0.12-0.009,0.248-0.012,0.384c-0.002,0.136-0.003,0.265-0.003,0.388v0.253c0,0.128,0.001,0.247,0.003,0.356
			c0.002,0.11,0.007,0.188,0.017,0.234c-0.336,0.098-0.678,0.174-1.022,0.229c-0.345,0.057-0.686,0.085-1.022,0.085
			c-0.439,0-0.845-0.058-1.214-0.173c-0.371-0.115-0.689-0.283-0.958-0.507c-0.269-0.222-0.478-0.49-0.628-0.805
			c-0.15-0.315-0.226-0.669-0.226-1.063c0-0.486,0.08-0.912,0.241-1.277c0.161-0.366,0.383-0.671,0.667-0.913
			c0.283-0.243,0.62-0.426,1.009-0.549c0.388-0.122,0.808-0.184,1.257-0.184c0.388,0,0.724,0.04,1.008,0.119
			c0.283,0.08,0.563,0.195,0.839,0.345c-0.04,0.132-0.08,0.263-0.118,0.391c-0.039,0.128-0.07,0.258-0.096,0.391h-0.107
			C1531.944,578.321,1531.739,578.135,1531.493,577.994L1531.493,577.994L1531.493,577.994z"/>
		<path id="_373771864" fill="#EA3639" d="M1537.751,578.991c-0.082-0.265-0.195-0.487-0.341-0.672
			c-0.146-0.185-0.322-0.325-0.53-0.426c-0.207-0.101-0.432-0.15-0.678-0.15c-0.26,0-0.494,0.063-0.702,0.188
			c-0.206,0.125-0.381,0.296-0.524,0.512c-0.143,0.214-0.251,0.465-0.325,0.755c-0.074,0.289-0.112,0.598-0.112,0.925
			c0,0.409,0.043,0.755,0.131,1.036c0.087,0.282,0.204,0.508,0.352,0.679s0.32,0.296,0.513,0.372
			c0.194,0.077,0.399,0.115,0.614,0.115c0.23,0,0.45-0.048,0.659-0.146s0.393-0.245,0.548-0.445s0.28-0.452,0.375-0.76
			c0.095-0.307,0.142-0.669,0.142-1.089C1537.874,579.553,1537.833,579.255,1537.751,578.991L1537.751,578.991z M1533.493,578.984
			c0.141-0.332,0.339-0.624,0.594-0.874c0.257-0.251,0.565-0.447,0.928-0.591c0.363-0.143,0.767-0.215,1.212-0.215
			c0.409,0,0.79,0.057,1.142,0.169c0.353,0.113,0.659,0.28,0.92,0.507c0.26,0.225,0.466,0.51,0.617,0.854
			c0.15,0.346,0.226,0.749,0.226,1.209c0,0.383-0.072,0.741-0.218,1.073s-0.348,0.623-0.606,0.871
			c-0.259,0.248-0.566,0.44-0.924,0.579c-0.357,0.139-0.751,0.207-1.181,0.207c-0.404,0-0.783-0.05-1.138-0.149
			c-0.355-0.1-0.665-0.262-0.928-0.483c-0.263-0.223-0.471-0.507-0.625-0.852c-0.153-0.346-0.23-0.758-0.23-1.238
			C1533.283,579.673,1533.353,579.317,1533.493,578.984L1533.493,578.984L1533.493,578.984z"/>
		<path id="_373772056" fill="#EA3639" d="M1542.779,579.296c0.25-0.658,0.476-1.287,0.675-1.892c0.128,0.026,0.24,0.04,0.337,0.04
			s0.209-0.014,0.337-0.04c-0.128,0.301-0.282,0.664-0.46,1.089s-0.365,0.875-0.56,1.351c-0.193,0.477-0.386,0.959-0.574,1.45
			c-0.189,0.49-0.357,0.951-0.506,1.381c-0.102-0.014-0.214-0.021-0.337-0.021c-0.122,0-0.235,0.007-0.337,0.021
			c-0.077-0.205-0.17-0.453-0.28-0.744c-0.11-0.292-0.228-0.602-0.352-0.929c-0.126-0.327-0.258-0.662-0.396-1.005
			s-0.271-0.674-0.399-0.993c-0.127-0.319-0.248-0.618-0.36-0.894c-0.112-0.276-0.209-0.513-0.291-0.706
			c0.117,0.011,0.233,0.021,0.349,0.028s0.228,0.012,0.341,0.012c0.112,0,0.225-0.004,0.337-0.012s0.225-0.018,0.337-0.028
			c0.087,0.286,0.185,0.588,0.295,0.906c0.11,0.316,0.224,0.64,0.341,0.969c0.118,0.33,0.239,0.661,0.364,0.993
			c0.125,0.334,0.246,0.661,0.364,0.982C1542.271,580.606,1542.529,579.953,1542.779,579.296L1542.779,579.296L1542.779,579.296z"/>
		<path id="_373772248" fill="#EA3639" d="M1544.822,578.399c-0.01-0.33-0.025-0.662-0.045-0.994
			c0.231,0.005,0.459,0.013,0.685,0.023c0.226,0.011,0.454,0.016,0.684,0.016c0.377,0,0.714-0.003,1.008-0.012
			c0.293-0.008,0.491-0.018,0.594-0.027c-0.02,0.082-0.03,0.189-0.03,0.323c0,0.081,0.002,0.146,0.008,0.191
			c0.005,0.047,0.012,0.097,0.022,0.154c-0.148-0.011-0.311-0.021-0.487-0.03c-0.175-0.011-0.347-0.021-0.514-0.031
			c-0.165-0.01-0.315-0.018-0.447-0.023c-0.133-0.005-0.228-0.007-0.284-0.007c-0.021,0.28-0.034,0.559-0.036,0.834
			c-0.002,0.276-0.004,0.554-0.004,0.835c0.332-0.006,0.633-0.013,0.9-0.022c0.269-0.011,0.548-0.022,0.84-0.038
			c-0.016,0.087-0.025,0.153-0.031,0.199c-0.005,0.046-0.008,0.094-0.008,0.146c0,0.041,0.004,0.083,0.012,0.127
			c0.009,0.043,0.017,0.105,0.027,0.188c-0.583-0.047-1.163-0.07-1.74-0.07c0,0.164-0.001,0.326-0.005,0.49
			c-0.003,0.163-0.005,0.326-0.005,0.49c0,0.331,0.007,0.65,0.02,0.956c0.292,0,0.583-0.008,0.874-0.021
			c0.292-0.015,0.586-0.038,0.882-0.071c-0.01,0.056-0.018,0.107-0.023,0.153c-0.005,0.046-0.007,0.109-0.007,0.191
			s0.001,0.146,0.007,0.192c0.005,0.046,0.013,0.084,0.023,0.115c-0.138-0.007-0.308-0.012-0.51-0.016
			c-0.201-0.004-0.479-0.005-0.831-0.005c-0.312,0-0.565,0-0.758,0c-0.189,0-0.34,0-0.455,0c-0.114,0-0.202,0.001-0.26,0.005
			c-0.059,0.004-0.108,0.009-0.149,0.016c0.021-0.317,0.036-0.641,0.045-0.971c0.01-0.33,0.016-0.707,0.016-1.132v-1.044
			C1544.837,579.104,1544.832,578.729,1544.822,578.399L1544.822,578.399L1544.822,578.399z"/>
		<path id="_373772440" fill="#EA3639" d="M1551.016,578.311c-0.046-0.132-0.116-0.233-0.21-0.302
			c-0.095-0.069-0.218-0.113-0.369-0.134c-0.15-0.021-0.331-0.031-0.54-0.031c-0.014,0.694-0.021,1.39-0.021,2.085
			c0.031,0.005,0.061,0.008,0.088,0.012c0.028,0.002,0.055,0.003,0.081,0.003c0.336,0,0.594-0.09,0.771-0.271
			c0.178-0.182,0.269-0.456,0.269-0.824C1551.086,578.623,1551.062,578.444,1551.016,578.311L1551.016,578.311z M1549.877,580.26
			v0.314c0,0.424,0.005,0.801,0.016,1.131s0.024,0.653,0.045,0.97c-0.088-0.014-0.182-0.021-0.284-0.021c-0.103,0-0.218,0-0.345,0
			c-0.128,0-0.243,0-0.346,0c-0.102,0-0.196,0.007-0.283,0.021c0.02-0.317,0.035-0.641,0.044-0.97
			c0.01-0.33,0.016-0.707,0.016-1.133v-1.043c0-0.425-0.005-0.802-0.016-1.131c-0.009-0.33-0.024-0.662-0.044-0.994
			c0.087,0.011,0.181,0.021,0.284,0.028c0.102,0.008,0.218,0.012,0.346,0.012c0.138,0,0.295-0.007,0.472-0.02
			c0.176-0.014,0.395-0.021,0.656-0.021c0.194,0,0.361,0.005,0.498,0.016c0.139,0.01,0.257,0.026,0.357,0.046
			c0.1,0.021,0.188,0.048,0.261,0.081s0.144,0.072,0.211,0.118c0.153,0.113,0.275,0.252,0.365,0.419
			c0.09,0.166,0.134,0.364,0.134,0.594c0,0.373-0.102,0.678-0.306,0.913c-0.205,0.235-0.499,0.402-0.883,0.498
			c0.245,0.436,0.508,0.868,0.789,1.301c0.282,0.433,0.563,0.861,0.843,1.285c-0.117-0.014-0.232-0.021-0.345-0.021
			c-0.112,0-0.227,0-0.344,0c-0.118,0-0.234,0-0.349,0c-0.116,0-0.231,0.007-0.35,0.021l-1.372-2.415H1549.877L1549.877,580.26
			L1549.877,580.26z"/>
		<path id="_373772632" fill="#EA3639" d="M1553.478,578.041c-0.011-0.24-0.019-0.452-0.023-0.636
			c0.143,0.026,0.258,0.039,0.344,0.039c0.088,0,0.203-0.013,0.346-0.039c0.558,0.618,1.109,1.227,1.654,1.825
			c0.544,0.599,1.104,1.207,1.677,1.826v-0.668v-0.744c0-0.25-0.001-0.498-0.004-0.74c-0.002-0.243-0.004-0.467-0.007-0.671
			c-0.002-0.205-0.008-0.381-0.015-0.53c-0.008-0.147-0.016-0.248-0.027-0.298c0.144,0.026,0.258,0.039,0.346,0.039
			c0.086,0,0.202-0.013,0.345-0.039c-0.027,0.465-0.049,0.886-0.064,1.261c-0.017,0.376-0.03,0.731-0.041,1.063
			c-0.01,0.333-0.018,0.661-0.02,0.986c-0.004,0.325-0.004,0.672-0.004,1.04v0.92c-0.102-0.014-0.208-0.021-0.314-0.021
			c-0.113,0-0.212,0.007-0.299,0.021c-1.053-1.228-2.169-2.463-3.35-3.705c-0.006,0.148-0.012,0.296-0.015,0.444
			c-0.004,0.148-0.005,0.3-0.005,0.453v0.89c0,0.307,0.001,0.567,0.004,0.782c0.002,0.216,0.006,0.397,0.012,0.545
			c0.006,0.148,0.011,0.27,0.017,0.364c0.005,0.095,0.011,0.17,0.017,0.227c-0.062-0.014-0.123-0.021-0.184-0.021
			c-0.062,0-0.121,0-0.177,0c-0.118,0-0.235,0.007-0.352,0.021c0.01-0.041,0.023-0.187,0.038-0.438
			c0.016-0.251,0.032-0.556,0.05-0.916c0.019-0.361,0.034-0.752,0.047-1.175c0.012-0.422,0.019-0.826,0.019-1.215
			C1553.494,578.578,1553.488,578.282,1553.478,578.041L1553.478,578.041L1553.478,578.041z"/>
		<path id="_373772824" fill="#EA3639" d="M1559.82,580.957c-0.042,0.571-0.083,1.146-0.123,1.718
			c-0.062-0.014-0.123-0.021-0.184-0.021c-0.062,0-0.12,0-0.177,0c-0.061,0-0.122,0-0.18,0c-0.059,0-0.119,0.007-0.18,0.021
			c0.163-0.88,0.308-1.755,0.437-2.623c0.128-0.87,0.245-1.752,0.352-2.647c0.056,0.011,0.108,0.021,0.157,0.028
			c0.048,0.008,0.102,0.012,0.157,0.012c0.047,0,0.096-0.004,0.146-0.012c0.051-0.008,0.104-0.018,0.161-0.028
			c0.138,0.307,0.282,0.619,0.433,0.936c0.151,0.317,0.301,0.634,0.453,0.947c0.151,0.315,0.301,0.624,0.452,0.925
			c0.151,0.303,0.295,0.589,0.433,0.859c0.307-0.572,0.612-1.172,0.917-1.799c0.304-0.627,0.594-1.249,0.87-1.868
			c0.128,0.026,0.237,0.04,0.329,0.04c0.087,0,0.195-0.014,0.323-0.04c0.051,0.44,0.105,0.913,0.165,1.419
			c0.058,0.507,0.116,1.001,0.173,1.484c0.056,0.483,0.111,0.935,0.168,1.354c0.056,0.42,0.107,0.757,0.154,1.013
			c-0.102-0.014-0.206-0.021-0.31-0.021c-0.105,0-0.209,0-0.311,0c-0.103,0-0.208,0-0.315,0c-0.107,0-0.215,0.007-0.322,0.021
			c-0.026-0.526-0.067-1.098-0.126-1.711s-0.119-1.223-0.181-1.826h-0.015c-0.292,0.604-0.577,1.197-0.858,1.78
			c-0.282,0.583-0.56,1.169-0.836,1.757c-0.026-0.007-0.05-0.012-0.073-0.016c-0.023-0.003-0.048-0.005-0.073-0.005
			c-0.026,0-0.05,0.002-0.073,0.005c-0.023,0.004-0.048,0.009-0.073,0.016c-0.276-0.572-0.55-1.146-0.824-1.718
			c-0.274-0.574-0.556-1.154-0.847-1.741l-0.015-0.001C1559.922,579.803,1559.861,580.383,1559.82,580.957z"/>
		<path id="_373773016" fill="#EA3639" d="M1566.117,578.399c-0.01-0.33-0.025-0.662-0.045-0.994
			c0.23,0.005,0.458,0.013,0.683,0.023c0.227,0.011,0.455,0.016,0.685,0.016c0.378,0,0.714-0.003,1.007-0.012
			c0.294-0.008,0.493-0.018,0.595-0.027c-0.021,0.082-0.031,0.189-0.031,0.323c0,0.081,0.003,0.146,0.008,0.191
			c0.006,0.047,0.013,0.097,0.023,0.154c-0.148-0.011-0.311-0.021-0.488-0.03c-0.175-0.011-0.347-0.021-0.513-0.031
			c-0.167-0.01-0.315-0.018-0.448-0.023c-0.134-0.005-0.228-0.007-0.284-0.007c-0.021,0.28-0.033,0.559-0.036,0.834
			c-0.002,0.276-0.003,0.554-0.003,0.835c0.332-0.006,0.631-0.013,0.9-0.022c0.268-0.011,0.549-0.022,0.839-0.038
			c-0.015,0.087-0.025,0.153-0.03,0.199c-0.006,0.046-0.008,0.094-0.008,0.146c0,0.041,0.003,0.083,0.011,0.127
			c0.008,0.043,0.017,0.105,0.027,0.188c-0.583-0.047-1.163-0.07-1.74-0.07c0,0.164-0.001,0.326-0.005,0.49
			c-0.003,0.163-0.005,0.326-0.005,0.49c0,0.331,0.007,0.65,0.021,0.956c0.291,0,0.582-0.008,0.873-0.021
			c0.291-0.015,0.585-0.038,0.882-0.071c-0.01,0.056-0.018,0.107-0.023,0.153s-0.008,0.109-0.008,0.191s0.002,0.146,0.008,0.192
			c0.005,0.046,0.014,0.084,0.023,0.115c-0.138-0.007-0.308-0.012-0.51-0.016c-0.201-0.004-0.479-0.005-0.832-0.005
			c-0.312,0-0.564,0-0.758,0c-0.188,0-0.34,0-0.455,0c-0.116,0-0.202,0.001-0.26,0.005c-0.059,0.004-0.109,0.009-0.149,0.016
			c0.02-0.317,0.035-0.641,0.045-0.971c0.01-0.33,0.015-0.707,0.015-1.132v-1.044
			C1566.132,579.104,1566.127,578.729,1566.117,578.399L1566.117,578.399L1566.117,578.399z"/>
		<path id="_373773208" fill="#EA3639" d="M1570.089,578.041c-0.011-0.24-0.019-0.452-0.024-0.636
			c0.143,0.026,0.258,0.039,0.345,0.039c0.088,0,0.202-0.013,0.346-0.039c0.557,0.618,1.109,1.227,1.654,1.825
			c0.544,0.599,1.104,1.207,1.677,1.826v-0.668v-0.744c0-0.25-0.001-0.498-0.004-0.74c-0.002-0.243-0.005-0.467-0.008-0.671
			c-0.002-0.205-0.006-0.381-0.014-0.53c-0.008-0.147-0.016-0.248-0.026-0.298c0.143,0.026,0.258,0.039,0.346,0.039
			c0.086,0,0.2-0.013,0.344-0.039c-0.026,0.465-0.048,0.886-0.064,1.261c-0.017,0.376-0.03,0.731-0.04,1.063
			c-0.012,0.333-0.018,0.661-0.021,0.986c-0.003,0.325-0.003,0.672-0.003,1.04v0.92c-0.103-0.014-0.208-0.021-0.315-0.021
			c-0.113,0-0.211,0.007-0.299,0.021c-1.052-1.228-2.169-2.463-3.349-3.705c-0.007,0.148-0.012,0.296-0.016,0.444
			c-0.002,0.148-0.003,0.3-0.003,0.453v0.89c0,0.307,0,0.567,0.003,0.782c0.003,0.216,0.007,0.397,0.013,0.545
			c0.005,0.148,0.011,0.27,0.016,0.364c0.006,0.095,0.011,0.17,0.016,0.227c-0.061-0.014-0.121-0.021-0.184-0.021
			c-0.061,0-0.12,0-0.176,0c-0.117,0-0.235,0.007-0.352,0.021c0.01-0.041,0.023-0.187,0.038-0.438
			c0.015-0.251,0.033-0.556,0.051-0.916c0.017-0.361,0.032-0.752,0.045-1.175c0.013-0.422,0.02-0.826,0.02-1.215
			C1570.105,578.578,1570.099,578.282,1570.089,578.041L1570.089,578.041L1570.089,578.041z"/>
		<path id="_373773400" fill="#EA3639" d="M1576.903,578.252c-0.003-0.123-0.009-0.212-0.019-0.269
			c-0.077,0-0.172,0.003-0.284,0.009c-0.113,0.004-0.232,0.011-0.36,0.018s-0.258,0.018-0.391,0.029
			c-0.133,0.013-0.256,0.026-0.368,0.041c0.01-0.056,0.019-0.112,0.026-0.169s0.012-0.112,0.012-0.168
			c0-0.057-0.004-0.113-0.012-0.169c-0.008-0.057-0.016-0.113-0.026-0.169c0.174,0.005,0.331,0.011,0.472,0.016
			c0.141,0.006,0.283,0.01,0.429,0.013c0.146,0.002,0.305,0.005,0.476,0.008c0.172,0.002,0.378,0.003,0.618,0.003
			s0.447-0.001,0.619-0.003c0.171-0.003,0.329-0.006,0.472-0.008c0.144-0.004,0.283-0.007,0.418-0.013
			c0.135-0.005,0.281-0.011,0.44-0.016c-0.01,0.056-0.02,0.112-0.027,0.169c-0.007,0.056-0.011,0.112-0.011,0.169
			c0,0.056,0.004,0.111,0.011,0.168c0.008,0.057,0.018,0.113,0.027,0.169c-0.103-0.015-0.217-0.028-0.346-0.041
			c-0.128-0.012-0.253-0.022-0.378-0.029c-0.127-0.007-0.244-0.014-0.357-0.018c-0.112-0.006-0.207-0.009-0.284-0.009
			c-0.004,0.025-0.009,0.062-0.011,0.107c-0.003,0.046-0.004,0.101-0.004,0.161v0.406v1.917c0,0.424,0.004,0.801,0.015,1.13
			c0.01,0.33,0.024,0.653,0.045,0.97c-0.087-0.013-0.181-0.02-0.283-0.02c-0.102,0-0.217,0-0.346,0c-0.127,0-0.242,0-0.345,0
			c-0.102,0-0.197,0.007-0.284,0.02c0.021-0.316,0.035-0.64,0.046-0.97c0.01-0.329,0.015-0.706,0.015-1.13v-1.917
			C1576.907,578.51,1576.906,578.375,1576.903,578.252L1576.903,578.252L1576.903,578.252z"/>
		<path id="_373773592" fill="#EA3639" d="M1586.451,578.991c-0.082-0.265-0.195-0.487-0.342-0.672
			c-0.145-0.185-0.321-0.325-0.527-0.426c-0.208-0.101-0.435-0.15-0.68-0.15c-0.26,0-0.494,0.063-0.701,0.188
			c-0.206,0.125-0.382,0.296-0.524,0.512c-0.144,0.214-0.253,0.465-0.326,0.755c-0.073,0.289-0.111,0.598-0.111,0.925
			c0,0.409,0.044,0.755,0.131,1.036c0.087,0.282,0.204,0.508,0.352,0.679c0.149,0.171,0.32,0.296,0.515,0.372
			c0.193,0.077,0.398,0.115,0.612,0.115c0.231,0,0.45-0.048,0.66-0.146c0.208-0.098,0.392-0.245,0.548-0.445
			c0.155-0.2,0.281-0.452,0.375-0.76c0.095-0.307,0.142-0.669,0.142-1.089C1586.573,579.553,1586.533,579.255,1586.451,578.991
			L1586.451,578.991z M1582.192,578.984c0.142-0.332,0.339-0.624,0.595-0.874c0.256-0.251,0.565-0.447,0.928-0.591
			c0.362-0.143,0.766-0.215,1.211-0.215c0.408,0,0.79,0.057,1.143,0.169c0.353,0.113,0.659,0.28,0.92,0.507
			c0.26,0.225,0.466,0.51,0.617,0.854c0.15,0.346,0.226,0.749,0.226,1.209c0,0.383-0.072,0.741-0.219,1.073
			c-0.146,0.332-0.347,0.623-0.604,0.871c-0.259,0.248-0.566,0.44-0.924,0.579c-0.358,0.139-0.752,0.207-1.182,0.207
			c-0.403,0-0.782-0.05-1.138-0.149c-0.356-0.1-0.665-0.262-0.929-0.483c-0.263-0.223-0.47-0.507-0.624-0.852
			c-0.153-0.346-0.229-0.758-0.229-1.238C1581.982,579.673,1582.052,579.317,1582.192,578.984L1582.192,578.984L1582.192,578.984z"
			/>
		<path id="_373773784" fill="#EA3639" d="M1588.692,578.399c-0.01-0.33-0.024-0.662-0.045-0.994
			c0.23,0.005,0.459,0.013,0.685,0.023s0.453,0.016,0.684,0.016c0.378,0,0.714-0.003,1.007-0.012
			c0.295-0.008,0.493-0.018,0.596-0.027c-0.021,0.082-0.031,0.189-0.031,0.323c0,0.081,0.003,0.146,0.008,0.191
			c0.005,0.047,0.013,0.097,0.023,0.154c-0.149-0.011-0.312-0.021-0.487-0.03c-0.177-0.011-0.348-0.021-0.514-0.031
			c-0.166-0.01-0.315-0.018-0.448-0.023c-0.133-0.005-0.228-0.007-0.284-0.007c-0.02,0.28-0.032,0.559-0.035,0.834
			c-0.002,0.276-0.004,0.554-0.004,0.835c0.334-0.006,0.634-0.013,0.902-0.022c0.268-0.011,0.547-0.022,0.839-0.038
			c-0.015,0.087-0.024,0.153-0.031,0.199c-0.005,0.046-0.007,0.094-0.007,0.146c0.001,0.041,0.004,0.083,0.012,0.127
			c0.007,0.043,0.017,0.105,0.026,0.188c-0.583-0.047-1.163-0.07-1.741-0.07v0.392c0,0.425,0.006,0.803,0.016,1.133
			s0.024,0.654,0.044,0.972c-0.087-0.014-0.181-0.021-0.283-0.021c-0.104,0-0.218,0-0.347,0c-0.127,0-0.242,0-0.344,0
			c-0.104,0-0.197,0.007-0.284,0.021c0.021-0.317,0.035-0.642,0.045-0.971c0.01-0.33,0.015-0.707,0.015-1.132v-1.044
			C1588.707,579.104,1588.702,578.729,1588.692,578.399L1588.692,578.399L1588.692,578.399z"/>
		<path id="_373773976" fill="#EA3639" d="M1595.879,581.14v0.46c0,0.149,0.001,0.285,0.005,0.408
			c0.004,0.122,0.005,0.202,0.005,0.238c0.077,0.004,0.169,0.009,0.277,0.013c0.106,0.005,0.239,0.007,0.398,0.007
			c0.578,0,1.035-0.197,1.373-0.592c0.338-0.394,0.506-0.989,0.506-1.788c0-0.316-0.041-0.601-0.125-0.851
			c-0.085-0.252-0.204-0.465-0.357-0.642c-0.153-0.176-0.338-0.312-0.553-0.406c-0.216-0.095-0.456-0.143-0.722-0.143
			c-0.185,0-0.333,0.004-0.448,0.012s-0.231,0.017-0.35,0.026c0,0.036-0.001,0.116-0.005,0.238
			c-0.004,0.123-0.005,0.262-0.005,0.415v0.46v0.385v1.366V581.14L1595.879,581.14L1595.879,581.14z M1594.727,578.398
			c-0.011-0.33-0.025-0.662-0.045-0.994c0.087,0.01,0.182,0.02,0.283,0.027c0.104,0.009,0.219,0.012,0.347,0.012
			c0.168,0,0.356-0.006,0.566-0.02c0.209-0.013,0.483-0.02,0.821-0.02c0.439,0,0.84,0.039,1.2,0.119
			c0.36,0.079,0.671,0.213,0.932,0.402c0.262,0.189,0.464,0.444,0.606,0.764c0.144,0.32,0.215,0.723,0.215,1.208
			c0,0.424-0.07,0.808-0.212,1.15c-0.14,0.343-0.331,0.636-0.575,0.879c-0.242,0.243-0.523,0.428-0.843,0.556
			s-0.662,0.192-1.024,0.192c-0.384,0-0.711-0.004-0.982-0.011c-0.271-0.006-0.506-0.01-0.704-0.01c-0.128,0-0.243,0-0.347,0
			c-0.102,0-0.196,0.007-0.283,0.021c0.02-0.317,0.034-0.641,0.045-0.971c0.01-0.329,0.015-0.707,0.015-1.132v-1.043
			C1594.741,579.104,1594.736,578.728,1594.727,578.398L1594.727,578.398L1594.727,578.398z"/>
		<path id="_373774168" fill="#EA3639" d="M1602.126,582.67c-0.283-0.068-0.529-0.183-0.739-0.344
			c-0.208-0.161-0.374-0.368-0.492-0.621c-0.12-0.254-0.18-0.562-0.18-0.925c0-0.204,0.002-0.388,0.004-0.549
			c0.004-0.16,0.006-0.311,0.006-0.449c0-0.138,0.001-0.271,0.005-0.397c0.003-0.128,0.006-0.261,0.006-0.399
			c0-0.414-0.003-0.749-0.009-1.005c-0.004-0.256-0.012-0.447-0.022-0.575c0.103,0.01,0.208,0.02,0.314,0.027
			s0.212,0.012,0.313,0.012c0.103,0,0.207-0.004,0.313-0.012c0.107-0.008,0.213-0.018,0.314-0.027
			c-0.052,0.495-0.081,0.957-0.092,1.384s-0.016,0.859-0.016,1.3c0,0.465,0.034,0.84,0.1,1.127c0.065,0.286,0.164,0.506,0.294,0.663
			c0.13,0.155,0.288,0.259,0.478,0.311c0.188,0.051,0.408,0.076,0.657,0.076c0.306,0,0.545-0.076,0.718-0.229
			c0.174-0.154,0.305-0.358,0.394-0.613c0.09-0.256,0.144-0.549,0.164-0.879c0.021-0.329,0.03-0.673,0.03-1.031
			c0-0.352-0.005-0.704-0.015-1.054s-0.025-0.701-0.045-1.054c0.072,0.01,0.142,0.02,0.209,0.027
			c0.066,0.008,0.129,0.012,0.185,0.012c0.066,0,0.13-0.004,0.193-0.012c0.061-0.008,0.125-0.018,0.191-0.027
			c-0.011,0.112-0.022,0.264-0.032,0.452c-0.013,0.188-0.023,0.408-0.035,0.656c-0.011,0.247-0.021,0.521-0.029,0.821
			c-0.008,0.299-0.013,0.613-0.013,0.947c0,0.89-0.19,1.527-0.573,1.913c-0.382,0.387-0.943,0.579-1.683,0.579
			C1602.713,582.774,1602.408,582.74,1602.126,582.67L1602.126,582.67L1602.126,582.67z"/>
		<path id="_373774360" fill="#EA3639" d="M1608.844,580.415c-0.16-0.177-0.394-0.265-0.698-0.265c-0.072,0-0.134,0.002-0.185,0.004
			c-0.05,0.004-0.099,0.006-0.145,0.006c0,0.107-0.001,0.218-0.005,0.334c-0.003,0.114-0.006,0.251-0.006,0.41
			c0,0.122,0.003,0.248,0.006,0.376c0.004,0.127,0.005,0.252,0.005,0.376c0,0.123,0.002,0.234,0.004,0.337
			c0.004,0.103,0.006,0.187,0.006,0.253c0.07,0.006,0.137,0.012,0.197,0.015c0.063,0.004,0.136,0.005,0.222,0.005
			c0.112,0,0.218-0.022,0.32-0.068c0.102-0.047,0.19-0.115,0.267-0.204c0.076-0.09,0.138-0.199,0.183-0.327
			c0.046-0.128,0.069-0.277,0.069-0.446C1609.084,580.86,1609.004,580.593,1608.844,580.415L1608.844,580.415L1608.844,580.415z
			 M1608.991,578.391c-0.027-0.108-0.075-0.203-0.142-0.282s-0.151-0.143-0.254-0.191c-0.102-0.048-0.229-0.073-0.384-0.073
			c-0.112,0-0.19,0.002-0.233,0.004c-0.044,0.004-0.092,0.01-0.143,0.02c-0.01,0.189-0.018,0.381-0.022,0.574
			s-0.008,0.357-0.008,0.489c0,0.138,0.003,0.269,0.006,0.394c0.004,0.126,0.005,0.254,0.005,0.386h0.345
			c0.107,0,0.213-0.02,0.317-0.061c0.105-0.041,0.198-0.101,0.278-0.18c0.083-0.079,0.149-0.18,0.2-0.303
			c0.052-0.121,0.077-0.265,0.077-0.428C1609.034,578.617,1609.021,578.501,1608.991,578.391L1608.991,578.391L1608.991,578.391z
			 M1606.66,578.399c-0.011-0.33-0.027-0.662-0.052-0.994c0.087,0.01,0.181,0.02,0.284,0.027c0.102,0.009,0.218,0.012,0.346,0.012
			c0.221,0,0.449-0.006,0.691-0.02c0.241-0.013,0.471-0.02,0.691-0.02c0.229,0,0.439,0.022,0.629,0.069
			c0.189,0.046,0.354,0.115,0.492,0.211c0.138,0.094,0.244,0.216,0.318,0.367c0.074,0.15,0.111,0.331,0.111,0.54
			c0,0.21-0.044,0.39-0.132,0.54c-0.087,0.151-0.194,0.276-0.32,0.376s-0.262,0.178-0.409,0.233
			c-0.146,0.057-0.278,0.095-0.397,0.115v0.014c0.117,0.005,0.256,0.031,0.413,0.08c0.158,0.049,0.31,0.125,0.452,0.227
			c0.143,0.103,0.265,0.235,0.363,0.396c0.101,0.162,0.149,0.358,0.149,0.588c0,0.277-0.049,0.513-0.149,0.707
			c-0.099,0.194-0.231,0.354-0.397,0.477s-0.356,0.208-0.57,0.257c-0.215,0.049-0.436,0.074-0.667,0.074
			c-0.204,0-0.395-0.004-0.569-0.011c-0.177-0.007-0.361-0.01-0.556-0.01c-0.138,0-0.28,0-0.425,0c-0.146,0-0.262,0.007-0.349,0.021
			c0.024-0.317,0.041-0.641,0.052-0.971c0.012-0.33,0.018-0.707,0.018-1.132v-1.044
			C1606.678,579.104,1606.672,578.729,1606.66,578.399L1606.66,578.399L1606.66,578.399z"/>
		<path id="_373774552" fill="#EA3639" d="M1612.682,578.846c-0.133,0.307-0.258,0.608-0.375,0.907
			c-0.118,0.299-0.232,0.604-0.345,0.915h1.403c-0.113-0.312-0.225-0.616-0.335-0.915
			C1612.921,579.454,1612.804,579.152,1612.682,578.846L1612.682,578.846L1612.682,578.846z M1615.396,582.675
			c-0.122-0.014-0.239-0.021-0.349-0.021s-0.218,0-0.325,0s-0.218,0-0.327,0s-0.218,0.007-0.325,0.021
			c-0.082-0.252-0.166-0.509-0.253-0.771s-0.179-0.524-0.276-0.787c-0.163-0.007-0.325-0.012-0.489-0.015s-0.328-0.005-0.49-0.005
			c-0.134,0-0.266,0.002-0.4,0.005c-0.131,0.003-0.266,0.008-0.397,0.015c-0.103,0.263-0.197,0.525-0.284,0.787
			c-0.086,0.262-0.166,0.519-0.237,0.771c-0.062-0.014-0.122-0.021-0.181-0.021s-0.119,0-0.18,0c-0.062,0-0.123,0-0.184,0
			c-0.062,0-0.128,0.007-0.199,0.021c0.061-0.133,0.143-0.317,0.245-0.553c0.102-0.235,0.214-0.502,0.337-0.798
			c0.123-0.297,0.254-0.615,0.395-0.956c0.141-0.34,0.281-0.684,0.421-1.031c0.142-0.349,0.279-0.691,0.415-1.029
			c0.135-0.337,0.259-0.651,0.371-0.943c0.053,0.011,0.1,0.021,0.146,0.028c0.046,0.008,0.094,0.012,0.146,0.012
			s0.1-0.003,0.146-0.012c0.046-0.008,0.096-0.018,0.146-0.028c0.164,0.436,0.339,0.9,0.525,1.396s0.374,0.983,0.563,1.462
			s0.373,0.933,0.552,1.362S1615.248,582.378,1615.396,582.675L1615.396,582.675L1615.396,582.675z"/>
		<path id="_373774744" fill="#EA3639" d="M1616.196,578.399c-0.009-0.33-0.024-0.662-0.044-0.994
			c0.085,0.01,0.182,0.02,0.283,0.027c0.102,0.009,0.217,0.012,0.345,0.012s0.243-0.003,0.345-0.012
			c0.103-0.008,0.197-0.018,0.284-0.027c-0.021,0.332-0.035,0.664-0.045,0.994c-0.01,0.329-0.015,0.705-0.015,1.131v1.043
			c0,0.425,0.005,0.802,0.015,1.132s0.024,0.653,0.045,0.971c-0.087-0.014-0.182-0.021-0.284-0.021c-0.102,0-0.217,0-0.345,0
			s-0.243,0-0.345,0s-0.198,0.007-0.283,0.021c0.02-0.317,0.035-0.641,0.044-0.971c0.01-0.33,0.016-0.707,0.016-1.132v-1.043
			C1616.212,579.104,1616.206,578.729,1616.196,578.399L1616.196,578.399z"/>
	</g>
</g>
</svg>
